<svg width="477" height="381" viewBox="0 0 477 381" fill="none" xmlns="http://www.w3.org/2000/svg">
<path d="M7.37207 24.4963V337.682C7.69118 344.476 10.6903 350.867 15.7124 355.453C20.7344 360.04 27.3698 362.449 34.1645 362.152H177.331C184.134 362.424 190.769 359.995 195.788 355.394C200.808 350.792 203.804 344.393 204.123 337.591V24.4963C203.971 21.1301 203.157 17.8269 201.728 14.7753C200.3 11.7237 198.284 8.98344 195.796 6.71112C193.307 4.4388 190.396 2.67891 187.228 1.53194C184.06 0.384977 180.697 -0.12658 177.331 0.0264828H34.1645C27.3729 -0.258304 20.7443 2.15464 15.725 6.73885C10.7057 11.3231 7.70297 17.7064 7.37207 24.4963ZM21.0417 24.7241C21.2311 20.5295 23.0716 16.58 26.1617 13.7373C29.2518 10.8946 33.3407 9.38943 37.5363 9.55011H57.4939V11.3728C57.5524 12.7017 57.8724 14.006 58.4356 15.2111C58.9988 16.4161 59.7941 17.4983 60.776 18.3956C61.7579 19.2929 62.9071 19.9877 64.1579 20.4403C65.4086 20.8929 66.7364 21.0943 68.0651 21.0331H145.025C147.705 21.1446 150.321 20.1914 152.301 18.3817C154.282 16.572 155.466 14.0525 155.596 11.3728V9.50453H176.465C178.54 9.39408 180.616 9.6948 182.574 10.3894C184.532 11.084 186.333 12.1588 187.875 13.552C189.416 14.9451 190.667 16.6292 191.555 18.5075C192.443 20.3857 192.952 22.4209 193.051 24.4963V336.771C192.861 340.962 191.019 344.907 187.928 347.742C184.836 350.578 180.747 352.072 176.556 351.899L37.3996 352.127C33.2584 352.277 29.2241 350.794 26.1648 347.999C23.1056 345.204 21.2659 341.319 21.0417 337.181V24.7241Z" fill="#E1E1E1"/>
<path d="M0.492188 31.1035V344.29C0.811294 351.084 3.81045 357.474 8.83248 362.061C13.8545 366.647 20.4899 369.056 27.2846 368.759H170.496C177.297 369.019 183.925 366.586 188.942 361.987C193.958 357.388 196.958 350.996 197.289 344.198V30.7845C196.981 23.9824 193.987 17.5803 188.964 12.9839C183.941 8.38748 177.299 5.97249 170.496 6.26918L27.2846 6.49702C20.4736 6.22511 13.8319 8.66081 8.8114 13.2717C3.79089 17.8826 0.799885 24.2937 0.492188 31.1035ZM14.1618 31.1035C14.3511 26.9128 16.1931 22.9678 19.2847 20.1324C22.3762 17.2969 26.4652 15.802 30.6564 15.9751H50.8419V17.8434C50.9003 19.1703 51.2205 20.4726 51.7843 21.6752C52.348 22.8778 53.1441 23.9571 54.1267 24.8507C55.1093 25.7444 56.2589 26.4348 57.5094 26.8823C58.7599 27.3298 60.0866 27.5255 61.413 27.4581H138.373C141.058 27.5572 143.673 26.5938 145.652 24.7768C147.631 22.9598 148.814 20.4357 148.944 17.7522V15.9295H169.813C174 15.7441 178.089 17.2286 181.182 20.0568C184.275 22.885 186.118 26.8255 186.308 31.0124V343.469C186.118 347.66 184.276 351.605 181.185 354.44C178.093 357.276 174.004 358.771 169.813 358.598H30.6564C28.5796 358.689 26.5051 358.371 24.5516 357.66C22.5981 356.949 20.804 355.86 19.2719 354.454C17.7398 353.049 16.4999 351.356 15.623 349.471C14.7462 347.586 14.2496 345.546 14.1618 343.469V31.1035Z" fill="white"/>
<path d="M14.1614 31.33V343.468C14.3505 347.655 16.1941 351.595 19.287 354.424C22.38 357.252 26.4692 358.736 30.656 358.551H169.812C173.996 358.724 178.079 357.235 181.169 354.41C184.259 351.584 186.106 347.651 186.307 343.468V31.0566C186.118 26.8697 184.274 22.9292 181.181 20.101C178.089 17.2728 173.999 15.7883 169.812 15.9738H148.944V17.7964C148.813 20.48 147.631 23.004 145.652 24.821C143.673 26.638 141.057 27.6015 138.372 27.5023H61.4126C60.0862 27.5697 58.7595 27.3741 57.509 26.9266C56.2585 26.4791 55.1088 25.7886 54.1263 24.8949C53.1437 24.0013 52.3476 22.9221 51.7839 21.7194C51.2201 20.5168 50.8998 19.2145 50.8414 17.8876V16.0193H30.656C28.5659 15.934 26.4795 16.2631 24.5171 16.9876C22.5547 17.7122 20.7551 18.8179 19.2219 20.2411C17.6886 21.6642 16.4522 23.3767 15.5836 25.2799C14.7151 27.183 14.2318 29.2392 14.1614 31.33V31.33Z" stroke="url(#paint0_linear)" stroke-width="0.21" stroke-miterlimit="10"/>
<path d="M14.1614 31.33V343.468C14.3505 347.655 16.1941 351.595 19.287 354.424C22.38 357.252 26.4692 358.736 30.656 358.551H169.812C173.996 358.724 178.079 357.235 181.169 354.41C184.259 351.584 186.106 347.651 186.307 343.468V31.0566C186.118 26.8697 184.274 22.9292 181.181 20.101C178.089 17.2728 173.999 15.7883 169.812 15.9738H148.944V17.7964C148.813 20.48 147.631 23.004 145.652 24.821C143.673 26.638 141.057 27.6014 138.372 27.5023H61.4126C60.0862 27.5697 58.7595 27.3741 57.509 26.9266C56.2585 26.4791 55.1088 25.7886 54.1263 24.8949C53.1437 24.0013 52.3476 22.9221 51.7839 21.7194C51.2201 20.5168 50.8998 19.2145 50.8414 17.8876V16.0193H30.656C28.5659 15.934 26.4795 16.2631 24.5171 16.9876C22.5547 17.7122 20.7551 18.8179 19.2219 20.2411C17.6886 21.6642 16.4522 23.3767 15.5836 25.2799C14.7151 27.183 14.2318 29.2392 14.1614 31.33Z" fill="url(#paint1_linear)"/>
<path opacity="0.28" d="M133.678 178.561H51.2048V261.038H133.678V178.561Z" fill="white"/>
<path opacity="0.28" d="M166.123 112.169H42.5955V142.335H166.123V112.169Z" fill="white"/>
<path opacity="0.28" d="M166.123 67.6036H42.5955V97.7694H166.123V67.6036Z" fill="white"/>
<path d="M89.4355 20.852L115.863 20.8065V18.6648L89.4355 18.7104V20.852Z" fill="url(#paint2_linear)"/>
<path d="M82.479 22.0549C84.0643 22.0394 85.3379 20.8436 85.3237 19.384C85.3094 17.9245 84.0127 16.7538 82.4274 16.7693C80.842 16.7848 79.5684 17.9806 79.5827 19.4402C79.597 20.8997 80.8937 22.0704 82.479 22.0549Z" fill="#E1E1E1"/>
<path d="M431.421 173.846C456.506 173.846 476.841 153.509 476.841 128.423C476.841 103.336 456.506 83 431.421 83C406.335 83 386 103.336 386 128.423C386 153.509 406.335 173.846 431.421 173.846Z" fill="#F9F9FA"/>
<path d="M419.087 133.916H408.981V147.355H419.087V133.916Z" fill="#234061"/>
<path d="M435.699 120.452H425.594V147.356H435.699V120.452Z" fill="#234061"/>
<path d="M450.857 108.996H440.752V147.355H450.857V108.996Z" fill="#234061"/>
<path d="M290.884 348.178C291.539 350.233 291.74 352.406 291.475 354.547C290.947 356.603 289.816 358.454 288.227 359.862C284.796 363.061 280.264 364.813 275.574 364.755C274.956 364.789 274.346 364.61 273.844 364.248C273.506 363.938 273.282 363.521 273.212 363.067C272.854 360.623 273.442 358.133 274.857 356.108C276.266 354.094 277.322 351.854 277.978 349.485C278.821 344.972 274.351 334.849 282.196 334.427C289.155 334.047 289.788 343.707 290.884 348.178Z" fill="#FDB9A9"/>
<path d="M293.922 355.054C293.922 355.054 295.735 357.374 294.85 359.272C293.964 361.17 282.955 373.276 271.989 369.142C261.023 365.008 282.112 358.091 282.112 358.091L293.922 355.054Z" fill="#D52258"/>
<path d="M291.686 349.104C291.219 349.027 290.74 349.115 290.332 349.354C289.924 349.593 289.612 349.967 289.451 350.412C288.858 351.67 287.954 352.756 286.825 353.568C285.696 354.38 284.379 354.891 282.997 355.052C279.876 355.052 277.725 352.099 276.249 352.521C272.703 355.78 270.244 360.05 269.205 364.753C269.585 367.706 274.182 368.676 278.653 367.706C284.431 365.965 289.585 362.597 293.5 358.005C293.947 356.486 294.015 354.881 293.699 353.329C293.383 351.778 292.692 350.327 291.686 349.104Z" fill="#F9F9FA"/>
<path d="M327.242 353.997C328.342 356.068 328.962 358.36 329.055 360.704C328.903 363.02 328.033 365.231 326.567 367.031C323.549 371.066 319.093 373.785 314.124 374.623C313.484 374.855 312.782 374.855 312.142 374.623C311.746 374.334 311.439 373.94 311.256 373.484C310.439 370.916 310.604 368.135 311.72 365.681C312.871 363.252 313.584 360.639 313.829 357.962C313.829 352.943 307.207 342.904 315.685 341.09C322.729 339.107 325.217 349.568 327.242 353.997Z" fill="#FDB9A9"/>
<path d="M331.798 360.788C331.798 360.788 334.202 362.939 333.611 365.006C333.021 367.073 323.404 382.342 310.877 379.896C298.35 377.449 319.65 366.145 319.65 366.145L331.798 360.788Z" fill="#FB5084"/>
<path d="M328.296 354.843C327.779 354.836 327.278 355.016 326.883 355.349C326.488 355.682 326.226 356.146 326.145 356.657C325.725 358.114 324.945 359.443 323.876 360.519C322.807 361.595 321.484 362.385 320.029 362.815C316.697 363.574 313.829 360.664 312.31 361.381C310.792 362.098 306.11 372.727 307.08 375.849C308.05 378.97 313.112 379.181 317.751 377.283C322.391 375.385 331.122 367.328 331.923 364.038C332.112 362.326 331.881 360.594 331.249 358.991C330.617 357.389 329.603 355.965 328.296 354.843Z" fill="#F9F9FA"/>
<path d="M295.818 244.582C295.565 248.294 288.605 254.326 286.37 257.236C282.827 262.298 279.579 267.528 276.416 272.843C273.711 277.056 271.543 281.59 269.963 286.341C268.884 290.474 268.318 294.723 268.276 298.995C267.601 313.884 268.866 329.449 276.332 342.356C276.806 343.313 277.555 344.106 278.483 344.634C279.15 344.847 279.851 344.933 280.549 344.887H287.72C288.043 344.983 288.386 344.993 288.715 344.915C289.044 344.838 289.346 344.677 289.593 344.447C289.84 344.217 290.023 343.926 290.124 343.604C290.224 343.282 290.239 342.939 290.166 342.609V313.969C290.086 312.282 290.242 310.593 290.63 308.949C291.216 307.25 292.071 305.655 293.161 304.225C295.854 300.38 298.813 296.73 302.018 293.3C308.011 287.564 313.645 281.464 318.889 275.036C323.027 269.277 325.374 262.425 325.638 255.338C325.638 252.807 327.156 251.12 325.005 249.517C323.432 248.964 321.78 248.665 320.113 248.631C312.014 247.239 303.832 246.185 295.818 244.582Z" fill="#3C597A"/>
<path d="M319.566 249.096C319.566 252.808 313.534 259.599 311.679 262.973C308.768 268.414 306.111 274.024 303.623 279.845C301.407 284.328 299.777 289.077 298.772 293.976C298.185 298.169 298.1 302.417 298.519 306.63C298.972 314.583 300.301 322.462 302.484 330.124C303.571 333.908 304.983 337.591 306.702 341.133C307.623 342.914 308.636 344.646 309.738 346.321C310.582 347.629 311.13 349.864 312.311 350.792C313.212 351.372 314.284 351.625 315.348 351.509C316.767 351.589 318.191 351.447 319.566 351.088C325.429 349.4 324.88 343.622 324.29 338.855L321.928 318.946C321.673 317.269 321.673 315.562 321.928 313.885C322.312 312.128 322.981 310.447 323.91 308.907C326.144 304.792 328.652 300.832 331.418 297.055C336.712 290.66 341.6 283.94 346.054 276.935C349.425 270.719 350.892 263.648 350.272 256.604C350.272 254.031 351.284 252.048 349.006 250.909C347.362 250.527 345.67 250.399 343.987 250.53C335.931 249.897 327.749 249.771 319.566 249.096Z" fill="#486B93"/>
<path d="M275.869 205.608C275.869 208.898 277.134 211.724 280.087 212.694H280.846C286.076 213.707 292.909 209.742 297.717 206.283C299.648 204.932 301.506 203.482 303.285 201.938V166.929L277.978 192.954C276.615 197.035 275.904 201.306 275.869 205.608Z" fill="#F9F9FA"/>
<path d="M297.379 206.367C297.379 208.012 297.168 209.657 297.168 211.302C297.168 220.371 299.277 229.651 296.578 238.551C295.67 240.424 295.404 242.543 295.819 244.583C296.587 246.223 297.941 247.517 299.615 248.21C307.838 252.094 316.699 254.452 325.765 255.17C332.514 256.14 342.13 258.123 348.373 254.495C350.755 252.725 352.346 250.089 352.801 247.156C355.198 237.824 356.611 228.268 357.019 218.642L357.272 214.888C357.778 206.452 357.947 197.552 357.778 188.905C358.317 182.603 356.647 176.31 353.054 171.105C346.469 164.749 338.092 160.568 329.055 159.125C326.45 158.572 323.777 158.416 321.126 158.661C317.393 159.275 313.788 160.501 310.454 162.289C306.502 163.634 303.145 166.32 300.964 169.881C298.892 174.44 297.473 179.268 296.747 184.223C295.897 188.854 295.699 193.582 296.156 198.269C296.156 200.546 296.957 202.866 297.211 205.144C297.337 205.524 297.379 206.156 297.379 206.367Z" fill="#F9F9FA"/>
<path opacity="0.1" d="M330.91 192.404C329.136 191.531 327.752 190.027 327.03 188.186C326.327 186.372 325.749 184.512 325.3 182.619C324.154 178.723 322.342 175.055 319.944 171.778C318.544 169.562 316.476 167.849 314.039 166.885C312.799 166.52 311.487 166.476 310.226 166.756C308.964 167.036 307.795 167.632 306.826 168.488C303.832 171.272 304.507 175.068 304.928 178.654C306.742 193.67 315.979 206.577 324.035 219.4C325.652 221.925 327.062 224.577 328.253 227.33C330.336 234.145 332.026 241.074 333.314 248.082C334.031 250.445 332.091 255 333.061 256.772C333.176 256.968 333.328 257.14 333.509 257.277C333.69 257.415 333.896 257.515 334.116 257.573C336.731 258.332 342.551 255.928 344.787 255.591C345.968 255.591 347.064 254.789 348.245 254.494C354.235 252.975 354.952 236.145 355.542 231.632C357.637 219.602 359.045 207.463 359.76 195.273C360.012 190.645 359.47 186.009 358.157 181.564C357.478 179.349 356.321 177.31 354.769 175.591C353.217 173.871 351.307 172.512 349.173 171.609C343.268 169.458 341.075 182.155 340.358 185.571C340.025 189.027 339.432 192.453 338.587 195.821C336.731 200.587 330.741 194.598 328.675 191.856C326.608 189.114 324.457 184.77 322.264 181.437C318.955 178.002 315.091 175.15 310.833 173.001C310.176 172.454 309.394 172.077 308.556 171.905C307.816 171.891 307.091 172.113 306.484 172.537C305.878 172.961 305.422 173.567 305.181 174.267C305.025 174.69 304.912 175.128 304.844 175.574" fill="#020202"/>
<path d="M312.521 155.944C313.704 156.744 315.135 157.092 316.553 156.924C317.726 156.763 318.881 156.498 320.007 156.132L320.623 155.991C320.768 155.894 320.944 155.854 321.117 155.877C321.117 155.877 321.192 156.206 321.23 156.371C321.965 158.635 322.498 160.96 322.822 163.319C322.917 163.73 323.011 164.141 323.105 164.553C323.056 165.012 323.162 165.476 323.407 165.868C323.776 166.346 324.44 166.41 325.021 166.493C326.121 166.579 327.227 166.514 328.309 166.302C330.532 165.552 332.541 164.275 334.163 162.58C333.092 158.66 332.39 154.649 332.066 150.598C332.062 145.364 331.405 140.15 330.11 135.078C329.516 133.105 328.346 131.353 326.75 130.05C325.537 129.325 324.185 128.863 322.782 128.693C321.379 128.523 319.956 128.648 318.605 129.061C314.949 129.83 311.592 131.636 308.936 134.263C307.964 135.308 308.066 136.323 308.071 137.663C308.163 139.763 308.314 141.935 308.552 143.915C308.804 146.27 309.181 148.61 309.683 150.925C309.989 152.887 310.997 154.671 312.521 155.944Z" fill="#FDB9A9"/>
<path d="M311.948 135.133C314.591 134.468 317.306 134.136 320.03 134.146C321.874 134.601 323.488 135.713 324.571 137.273C325.653 138.833 326.13 140.735 325.911 142.621C326.982 142.765 326.732 140.918 327.353 140.04C327.974 139.162 329.876 139.721 330.282 140.926C330.515 142.175 330.422 143.463 330.015 144.666C329.566 147.064 329.966 149.542 331.146 151.677C331.277 152.253 331.953 152.747 332.459 152.501C332.966 152.255 333.16 151.215 333.395 150.729C333.783 149.977 334.225 149.254 334.716 148.565C335.673 147.264 336.772 146.017 337.769 144.706C339.778 142.022 340.81 138.732 340.695 135.381C340.601 134.687 340.615 133.983 340.736 133.294C340.996 132.637 341.384 132.038 341.877 131.531C342.369 131.025 342.958 130.621 343.607 130.342C343.459 129.416 343.52 128.469 343.785 127.569C344.051 126.67 344.514 125.841 345.142 125.144L341.91 125.582C342.267 124.706 342.392 123.754 342.272 122.816C341.171 123.156 340.013 123.267 338.868 123.143C337.723 123.018 336.616 122.66 335.615 122.092C333.527 121.099 331.723 119.651 329.699 118.558C325.831 116.448 321.337 115.79 317.027 116.702C314.888 117.18 312.872 118.098 311.106 119.396C309.34 120.695 307.864 122.346 306.77 124.246C306.091 125.337 305.646 126.556 305.46 127.827C305.275 129.098 305.355 130.394 305.694 131.633C306.856 135.002 309.251 135.448 311.948 135.133Z" fill="#416184"/>
<path d="M320.016 156.174L320.633 156.033C320.778 155.936 320.954 155.896 321.126 155.92C321.126 155.92 321.202 156.249 321.24 156.413C321.975 158.678 322.508 161.003 322.832 163.361C324.752 162.311 326.252 160.631 327.079 158.606C327.907 156.58 328.013 154.331 327.379 152.236C325.099 153.849 322.658 155.221 320.095 156.329L320.016 156.174Z" fill="#DE9F93"/>
<path d="M254.695 196.582C258.024 201.307 262.149 205.417 266.885 208.73C270.292 211.081 274.239 212.532 278.357 212.948C278.887 213.05 279.431 213.05 279.96 212.948C280.836 212.692 281.606 212.16 282.153 211.429C283.88 209.384 284.914 206.844 285.106 204.174C284.926 201.87 284.167 199.649 282.899 197.716C281.63 195.784 279.894 194.204 277.851 193.123C277.851 193.123 260.642 187.64 258.618 188.526C257.479 189.032 256.425 191.436 255.665 193.545C254.906 195.654 254.695 196.582 254.695 196.582Z" fill="#F9F9FA"/>
<path opacity="0.1" d="M266.885 208.73C270.292 211.081 274.239 212.532 278.357 212.948C278.887 213.05 279.431 213.05 279.96 212.948H280.719C285.949 213.96 292.782 209.995 297.591 206.537L295.988 196.076C292.857 199.327 289.208 202.035 285.19 204.09C282.36 205.595 279.133 206.185 275.953 205.777C275.092 205.641 274.255 205.386 273.465 205.018C267.053 201.976 261.069 198.104 255.665 193.503C255.075 195.274 254.695 196.793 254.695 196.793" fill="#020202"/>
<path d="M257.9 184.391L257.521 183.674C256.9 182.829 256.209 182.039 255.454 181.312C254.054 179.706 252.452 178.289 250.688 177.094C248.64 176.057 246.526 175.156 244.361 174.394C243.598 173.988 242.71 173.883 241.873 174.099C241.432 174.316 241.079 174.676 240.872 175.121C240.665 175.567 240.616 176.069 240.734 176.546C240.87 177.016 241.102 177.453 241.414 177.83C241.726 178.207 242.111 178.516 242.547 178.739C243.011 178.992 243.602 179.329 243.56 179.878C243.524 180.125 243.422 180.358 243.264 180.553C242.641 181.735 242.323 183.054 242.336 184.391C242.137 186.523 242.28 188.673 242.758 190.76C243.222 192.873 244.436 194.746 246.175 196.033C247.263 196.799 248.476 197.37 249.76 197.72C254.315 198.859 257.816 197.72 258.955 192.827C259.399 190.466 259.18 188.027 258.322 185.783C258.195 185.066 258.195 184.813 257.9 184.391Z" fill="#FDB9A9"/>
<path d="M314.238 152.655C313.17 152.477 312.073 152.694 311.152 153.264C310.231 153.834 309.549 154.719 309.231 155.754C309.16 156.722 309.083 157.774 308.759 158.723C308.187 160.753 306.267 162.134 305.241 164.004C304.625 165.177 304.385 166.511 304.553 167.824C304.721 169.138 305.29 170.368 306.181 171.348C307.563 172.581 309.2 173.496 310.974 174.027C311.413 174.141 311.869 174.175 312.32 174.126C312.87 174.057 313.4 173.88 313.881 173.606C316.143 171.866 317.659 169.332 318.124 166.517C319.322 161.741 321.237 154.1 314.238 152.655Z" fill="#FDB9A9"/>
<path d="M314.836 194.534C317.504 200.512 321.376 205.875 326.211 210.288C328.62 212.498 331.502 214.128 334.637 215.055C337.772 215.981 341.077 216.18 344.3 215.635C347.804 214.66 350.988 212.779 353.534 210.182C356.079 207.585 357.896 204.363 358.802 200.841C360.523 193.811 360.162 186.432 357.761 179.605C356.88 176.024 355.098 172.728 352.585 170.03C351.306 168.7 349.675 167.761 347.883 167.321C346.091 166.882 344.21 166.961 342.461 167.549C340.895 168.392 339.543 169.582 338.508 171.029C337.474 172.476 336.784 174.14 336.493 175.895C335.715 179.461 335.735 183.185 334.727 186.664L326.251 174.678C324.526 171.809 322.261 169.303 319.581 167.297C318.322 166.464 316.862 165.985 315.354 165.909C313.845 165.833 312.345 166.164 311.008 166.866C309.671 167.568 308.547 168.616 307.754 169.901C306.96 171.185 306.526 172.659 306.496 174.169C307.02 180.717 312.02 188.823 314.836 194.534Z" fill="#F9F9FA"/>
<path d="M271.562 160.644H132.424C126.901 160.644 122.424 165.121 122.424 170.644V309.79C122.424 315.313 126.901 319.79 132.424 319.79H271.562C277.085 319.79 281.562 315.313 281.562 309.79V170.644C281.562 165.121 277.085 160.644 271.562 160.644Z" fill="#45678C"/>
<path opacity="0.41" d="M247.736 199.999H147.858C144.993 199.999 142.67 202.322 142.67 205.187V274.827C142.67 277.692 144.993 280.015 147.858 280.015H247.736C250.601 280.015 252.924 277.692 252.924 274.827V205.187C252.924 202.322 250.601 199.999 247.736 199.999Z" fill="#3C597A"/>
<path d="M147.773 233.7L165.362 217.376L189.572 246.565L210.788 228.006L219.603 235.556L239.3 209.235L249.296 221.299V274.193H147.773V233.7Z" fill="#3C597A"/>
<path d="M189.531 247.324L165.278 218.135L148.154 234.122L147.395 233.32L165.405 216.575L189.657 245.806L210.788 227.289L219.519 234.797L239.259 208.35L249.719 220.962L248.875 221.636L239.301 210.121L219.688 236.357L210.788 228.723L189.531 247.324Z" fill="#F9F9FA"/>
<path d="M249.422 223.155C250.657 223.155 251.657 222.154 251.657 220.919C251.657 219.684 250.657 218.684 249.422 218.684C248.187 218.684 247.187 219.684 247.187 220.919C247.187 222.154 248.187 223.155 249.422 223.155Z" fill="white"/>
<path d="M219.603 237.79C220.837 237.79 221.838 236.79 221.838 235.555C221.838 234.32 220.837 233.319 219.603 233.319C218.368 233.319 217.367 234.32 217.367 235.555C217.367 236.79 218.368 237.79 219.603 237.79Z" fill="white"/>
<path d="M147.773 235.937C149.007 235.937 150.008 234.936 150.008 233.701C150.008 232.467 149.007 231.466 147.773 231.466C146.538 231.466 145.537 232.467 145.537 233.701C145.537 234.936 146.538 235.937 147.773 235.937Z" fill="white"/>
<path d="M210.788 230.241C212.023 230.241 213.024 229.24 213.024 228.005C213.024 226.77 212.023 225.77 210.788 225.77C209.554 225.77 208.553 226.77 208.553 228.005C208.553 229.24 209.554 230.241 210.788 230.241Z" fill="white"/>
<path d="M189.571 248.801C190.806 248.801 191.807 247.8 191.807 246.566C191.807 245.331 190.806 244.33 189.571 244.33C188.337 244.33 187.336 245.331 187.336 246.566C187.336 247.8 188.337 248.801 189.571 248.801Z" fill="white"/>
<path d="M241.325 160.391C241.141 161.251 241.171 162.144 241.414 162.99C241.657 163.836 242.104 164.609 242.717 165.241C243.244 165.7 243.863 166.042 244.531 166.245C245.2 166.449 245.904 166.509 246.597 166.422C248.002 166.239 249.292 165.549 250.224 164.482C250.785 165.043 251.508 165.412 252.291 165.537C252.694 165.575 253.097 165.475 253.435 165.252C253.772 165.03 254.024 164.698 254.147 164.313C254.147 163.428 253.599 162.668 253.303 161.783C253.008 160.897 253.304 160.391 252.84 159.758C252.54 159.264 252.142 158.837 251.67 158.503C251.199 158.169 250.663 157.936 250.098 157.818C247.188 156.974 241.958 156.763 241.325 160.391Z" fill="#FDB9A9"/>
<path d="M165.362 219.613C166.597 219.613 167.598 218.612 167.598 217.377C167.598 216.142 166.597 215.142 165.362 215.142C164.128 215.142 163.127 216.142 163.127 217.377C163.127 218.612 164.128 219.613 165.362 219.613Z" fill="white"/>
<path d="M239.51 211.469C240.744 211.469 241.745 210.468 241.745 209.234C241.745 207.999 240.744 206.998 239.51 206.998C238.275 206.998 237.274 207.999 237.274 209.234C237.274 210.468 238.275 211.469 239.51 211.469Z" fill="white"/>
<path d="M309.204 100.412C336.93 100.412 359.407 77.9341 359.407 50.2061C359.407 22.478 336.93 0 309.204 0C281.477 0 259 22.478 259 50.2061C259 77.9341 281.477 100.412 309.204 100.412Z" fill="url(#paint3_linear)"/>
<path d="M309.928 37.4162C312.181 41.0653 313.099 45.3821 312.528 49.6321C311.933 53.3388 312.364 57.1374 313.772 60.6172C314.224 61.6676 314.79 62.677 315.372 63.8062L302.142 73.522C301.555 72.9204 300.996 72.298 300.385 71.7431C297.745 69.3167 294.474 67.6849 290.949 67.0352C287.888 66.538 284.958 65.4362 282.328 63.7941C279.938 62.1869 277.929 60.0748 276.445 57.6068C274.96 55.1388 274.034 52.375 273.734 49.5104C273.434 46.6458 273.766 43.7502 274.707 41.0279C275.647 38.3056 277.174 35.8229 279.179 33.755C279.556 33.3765 279.937 33.0239 280.315 32.6877C282.474 30.8077 285.019 29.4242 287.771 28.6348C290.523 27.8455 293.414 27.6696 296.242 28.1194C299.069 28.5692 301.763 29.6338 304.134 31.2382C306.505 32.8426 308.495 34.9477 309.963 37.4049L309.928 37.4162Z" fill="#F0F0F0"/>
<path d="M315.654 63.5554L302.538 73.1879C301.588 73.8854 301.383 75.221 302.081 76.1709L302.088 76.1803C302.785 77.1302 304.121 77.3348 305.071 76.6372L318.188 67.0047C319.137 66.3071 319.342 64.9716 318.644 64.0217L318.637 64.0123C317.94 63.0624 316.604 62.8578 315.654 63.5554Z" fill="#234061"/>
<path d="M316.776 67.1822L305.058 75.7876C304.207 76.4124 304.024 77.6085 304.649 78.4592C305.273 79.3099 306.469 79.4932 307.32 78.8684L319.038 70.263C319.889 69.6382 320.072 68.4421 319.448 67.5914C318.823 66.7407 317.627 66.5575 316.776 67.1822Z" fill="#234061"/>
<path d="M317.864 70.2686L307.686 77.7428C306.95 78.2832 306.791 79.3179 307.332 80.0538L307.339 80.0632C307.879 80.7992 308.914 80.9576 309.65 80.4172L319.828 72.943C320.564 72.4026 320.722 71.3679 320.182 70.632L320.175 70.6226C319.634 69.8866 318.6 69.7282 317.864 70.2686Z" fill="#234061"/>
<path d="M305.423 70.9965C303.546 68.6537 301.465 66.4825 299.203 64.5083C297.36 62.8447 295.611 61.0788 293.966 59.219C291.544 56.357 290.592 53.8124 291.057 51.4345C291.112 50.9882 291.327 50.577 291.662 50.2775C291.855 50.1331 292.075 50.0283 292.308 49.9691C292.542 49.9099 292.785 49.8974 293.023 49.9324C293.029 49.841 293.025 49.7566 293.038 49.6746C293.055 49.1875 293.214 48.7162 293.497 48.3191C293.646 48.1252 293.833 47.9645 294.048 47.8471C294.262 47.7298 294.498 47.6584 294.742 47.6375C295.09 47.6011 295.441 47.6406 295.773 47.7535C295.878 47.4808 296.036 47.2318 296.238 47.0209C296.44 46.8099 296.682 46.6413 296.95 46.5248C297.97 46.1106 299.162 46.4862 300.382 47.6124C303.314 50.3176 304.982 53.9951 306.613 57.5831C307.834 60.6801 309.507 63.5791 311.578 66.1856L310.695 66.9646C308.545 64.2751 306.81 61.2783 305.548 58.0742C303.913 54.4604 302.371 51.0539 299.616 48.5098C299.123 48.0569 298.185 47.3346 297.425 47.6458C297.163 47.7733 296.963 47.9989 296.867 48.2734C297.055 48.3905 297.234 48.5216 297.403 48.6657C298.309 49.4286 299.119 50.2991 299.815 51.2579C299.934 51.4014 300.021 51.5685 300.07 51.7481C300.119 51.9277 300.129 52.1157 300.1 52.2996C300.067 52.4583 299.993 52.6054 299.885 52.7258C299.776 52.8463 299.638 52.9358 299.484 52.9852C299.205 53.0478 298.915 53.0424 298.638 52.9694C298.362 52.8964 298.107 52.758 297.896 52.5658C296.954 51.903 296.206 51.001 295.729 49.9527C295.606 49.6187 295.544 49.2655 295.545 48.9096C295.327 48.8214 295.091 48.7853 294.857 48.8042C294.773 48.8093 294.692 48.8323 294.618 48.8716C294.544 48.9109 294.479 48.9656 294.428 49.032C294.287 49.2465 294.213 49.498 294.216 49.7545C294.203 49.8951 294.209 50.0218 294.205 50.1554C295.76 50.6406 297.067 51.7095 297.85 53.1376C298.234 53.859 298.305 54.7673 297.624 55.267C297.371 55.4139 297.081 55.4841 296.788 55.4691C296.496 55.4541 296.214 55.3544 295.977 55.1823C295.229 54.7584 294.584 54.1754 294.087 53.4746C293.59 52.7738 293.253 51.9723 293.1 51.1268L293.053 51.1615C292.667 51.1107 292.49 51.1676 292.44 51.2187C292.338 51.3514 292.273 51.5096 292.253 51.6764C291.865 53.6634 292.763 55.9566 294.895 58.4639C296.513 60.2847 298.227 62.0172 300.03 63.6537C302.34 65.679 304.463 67.9073 306.375 70.312L305.423 70.9965ZM294.391 51.4588C294.746 52.5785 295.508 53.5243 296.527 54.1091C296.655 54.188 296.8 54.236 296.95 54.2494C296.967 54.0415 296.917 53.8336 296.806 53.657C296.257 52.7024 295.417 51.9479 294.41 51.5035L294.391 51.4588ZM296.89 49.7698C297.326 50.5037 297.908 51.1407 298.599 51.642C298.093 50.9817 297.527 50.3699 296.908 49.8145L296.89 49.7698Z" fill="#3C597A"/>
<path d="M343.435 41.2358C342.398 43.7961 340.506 45.9181 338.081 47.2405C335.93 48.3442 334.121 50.0151 332.85 52.0726C332.477 52.7073 332.168 53.3862 331.803 54.1187L321.716 50.9493C321.805 50.4151 321.915 49.8877 321.971 49.3589C322.225 47.0635 321.826 44.743 320.82 42.6643C319.912 40.8854 319.368 38.9436 319.219 36.9521C319.143 35.0983 319.475 33.2504 320.191 31.5388C320.907 29.8272 321.989 28.2936 323.363 27.0461C324.736 25.7987 326.367 24.8678 328.139 24.3191C329.911 23.7704 331.782 23.6174 333.62 23.8707C333.96 23.9222 334.289 23.9858 334.608 24.0543C336.407 24.4592 338.095 25.2538 339.553 26.3823C341.012 27.5107 342.205 28.9453 343.049 30.5851C343.892 32.2248 344.366 34.0297 344.436 35.8724C344.506 37.7151 344.171 39.5507 343.455 41.2498L343.435 41.2358Z" fill="#F0F0F0"/>
<path d="M332.041 54.169L322.04 51.0268C321.316 50.7992 320.545 51.2019 320.317 51.9261L320.315 51.9333C320.087 52.6575 320.49 53.4291 321.214 53.6566L331.215 56.7989C331.939 57.0264 332.711 56.6238 332.938 55.8995L332.94 55.8923C333.168 55.1681 332.765 54.3965 332.041 54.169Z" fill="#234061"/>
<path d="M330.586 56.1339L321.651 53.3268C321.003 53.123 320.312 53.4836 320.108 54.1322C319.904 54.7808 320.265 55.4719 320.913 55.6757L329.848 58.4828C330.496 58.6866 331.187 58.326 331.391 57.6774C331.595 57.0288 331.234 56.3377 330.586 56.1339Z" fill="#234061"/>
<path d="M329.397 57.8744L321.637 55.4363C321.075 55.26 320.478 55.5719 320.301 56.133L320.299 56.1402C320.123 56.7013 320.435 57.299 320.996 57.4753L328.756 59.9135C329.317 60.0898 329.915 59.7778 330.091 59.2168L330.093 59.2096C330.27 58.6485 329.958 58.0507 329.397 57.8744Z" fill="#234061"/>
<path d="M324.278 51.6898C324.78 49.8224 325.114 47.9141 325.278 45.9875C325.44 44.3962 325.69 42.8152 326.029 41.2521C326.593 38.9038 327.552 37.4397 328.964 36.7751C329.217 36.6333 329.512 36.5883 329.795 36.6484C329.944 36.6936 330.082 36.7677 330.202 36.8665C330.322 36.9653 330.421 37.0867 330.493 37.2239C330.543 37.192 330.585 37.1578 330.633 37.1331C330.892 36.9563 331.198 36.8596 331.512 36.8551C331.669 36.8585 331.824 36.8947 331.967 36.9613C332.109 37.0279 332.236 37.1236 332.34 37.2421C332.492 37.4089 332.605 37.6066 332.673 37.8215C332.854 37.7722 333.044 37.7595 333.23 37.7842C333.417 37.8088 333.597 37.8704 333.76 37.9651C334.363 38.3369 334.622 39.0991 334.502 40.1618C334.214 42.7155 332.94 44.9829 331.698 47.1972C330.555 49.0112 329.686 50.9847 329.122 53.0534L328.381 52.8919C328.958 50.7502 329.854 48.7073 331.037 46.8312C332.291 44.6048 333.473 42.5062 333.744 40.1056C333.792 39.6772 333.809 38.915 333.358 38.6385C333.192 38.5514 332.999 38.5333 332.82 38.5881C332.831 38.7305 332.831 38.8734 332.82 39.0157C332.769 39.7772 332.626 40.5297 332.393 41.2565C332.364 41.3728 332.31 41.4815 332.235 41.5755C332.161 41.6694 332.067 41.7465 331.96 41.8014C331.866 41.8448 331.761 41.8622 331.657 41.8518C331.553 41.8415 331.454 41.8037 331.369 41.7424C331.231 41.6214 331.123 41.4688 331.056 41.2974C330.988 41.126 330.963 40.941 330.982 40.7578C330.968 40.0162 331.151 39.2841 331.514 38.637C331.64 38.4459 331.8 38.2789 331.985 38.144C331.948 37.9971 331.877 37.8609 331.778 37.7463C331.743 37.7048 331.7 37.6712 331.652 37.6477C331.603 37.6242 331.55 37.6114 331.496 37.6102C331.331 37.6189 331.172 37.6765 331.04 37.7758C330.962 37.8225 330.899 37.8738 330.828 37.9228C331.168 38.9152 331.111 40.001 330.668 40.952C330.44 41.4265 329.995 41.8092 329.476 41.6462C329.303 41.5706 329.156 41.4465 329.052 41.2888C328.949 41.1312 328.893 40.9468 328.892 40.7582C328.827 40.2085 328.884 39.6514 329.059 39.1262C329.234 38.601 329.522 38.1206 329.902 37.719L329.866 37.7077C329.746 37.4877 329.649 37.4177 329.603 37.4113C329.495 37.4085 329.388 37.4351 329.294 37.4883C328.114 38.0438 327.265 39.3842 326.776 41.447C326.446 42.9807 326.2 44.5311 326.037 46.0914C325.865 48.0626 325.517 50.0144 324.996 51.9234L324.278 51.6898ZM330.222 38.5161C329.776 39.127 329.575 39.8832 329.659 40.635C329.667 40.7317 329.697 40.8252 329.747 40.9082C329.862 40.8381 329.951 40.7326 330 40.6076C330.287 39.9587 330.359 39.2353 330.206 38.5427L330.222 38.5161ZM332.051 39.17C331.836 39.6763 331.727 40.2211 331.73 40.7711C331.88 40.2568 331.982 39.7297 332.035 39.1965L332.051 39.17Z" fill="#3C597A"/>
<defs>
<linearGradient id="paint0_linear" x1="276.49" y1="64.5488" x2="18.1649" y2="289.414" gradientUnits="userSpaceOnUse">
<stop stop-color="white"/>
<stop offset="1" stop-color="#CACACA"/>
</linearGradient>
<linearGradient id="paint1_linear" x1="100.234" y1="15.9583" x2="100.234" y2="358.566" gradientUnits="userSpaceOnUse">
<stop stop-color="#43DDE6"/>
<stop offset="1" stop-color="#00B2BC"/>
</linearGradient>
<linearGradient id="paint2_linear" x1="-64185.6" y1="-837.369" x2="-64185.6" y2="-829.188" gradientUnits="userSpaceOnUse">
<stop stop-color="white"/>
<stop offset="1" stop-color="#CACACA"/>
</linearGradient>
<linearGradient id="paint3_linear" x1="309.204" y1="0" x2="309.204" y2="100.412" gradientUnits="userSpaceOnUse">
<stop stop-color="#FC5185"/>
<stop offset="1" stop-color="#D32056"/>
</linearGradient>
</defs>
</svg>
