<svg width="306" height="320" viewBox="0 0 306 320" fill="none" xmlns="http://www.w3.org/2000/svg">
<path d="M115.5 231C179.289 231 231 179.289 231 115.5C231 51.7111 179.289 0 115.5 0C51.7111 0 0 51.7111 0 115.5C0 179.289 51.7111 231 115.5 231Z" fill="url(#paint0_linear)"/>
<path d="M130.61 306.2C127.31 307.63 123.83 310.9 125.15 314.25C139.63 319.52 155.42 319.52 170.83 319.45C208.18 319.28 245.53 319.12 282.83 318.78C285.94 318.78 289.19 318.69 291.92 317.2C294.65 315.71 296.61 312.31 295.42 309.44C294.3 306.76 291.12 305.7 288.29 305.02C278.949 302.768 269.441 301.27 259.86 300.54C252.08 299.94 243.29 299.41 238.24 293.46C236.33 291.21 235.19 288.38 233.24 286.18C221.57 273.03 194.12 278.89 184.16 290.09C168.99 307.19 149.51 297.99 130.61 306.2Z" fill="#3C597A"/>
<path d="M167.12 204.02C164.9 210.37 162.98 216.94 162.94 223.67C162.9 230.4 164.94 237.37 169.69 242.13C176.64 249.13 187.46 249.9 197.29 250.29L210.29 250.81C215.4 251.01 220.56 251.21 225.57 250.19C230.58 249.17 235.48 246.76 238.57 242.66C240.558 239.751 241.888 236.445 242.47 232.97C245.99 215.88 240.28 197.67 229.55 183.91C226.43 179.731 222.623 176.113 218.29 173.21C211.07 168.62 189.58 161.74 182.52 169.43C179.31 172.92 177.28 179.99 175.25 184.27C172.191 190.704 169.477 197.297 167.12 204.02Z" fill="url(#paint1_linear)"/>
<path d="M173.79 200.38C171.99 205.52 170.44 210.83 170.41 216.28C170.38 221.73 172.03 227.36 175.87 231.21C181.49 236.84 190.25 237.49 198.19 237.81L208.72 238.23C212.842 238.556 216.989 238.385 221.07 237.72C225.12 236.89 229.07 234.95 231.55 231.63C233.165 229.283 234.244 226.61 234.71 223.8C237.56 209.97 232.94 195.25 224.26 184.12C221.738 180.736 218.657 177.807 215.15 175.46C209.31 171.75 191.93 166.19 186.22 172.4C183.63 175.23 181.98 180.95 180.35 184.4C177.88 189.606 175.691 194.94 173.79 200.38Z" fill="#D52258"/>
<path d="M186.36 291.54C185.36 293.28 184.25 294.95 183.3 296.7C181.85 299.42 180.85 302.63 181.81 305.55C181.944 306.058 182.218 306.519 182.6 306.88C183.11 307.24 183.708 307.457 184.33 307.51C186.352 307.827 188.394 307.994 190.44 308.01C193.24 308.01 196.26 307.68 198.34 305.8C202.51 302.01 202.23 292.68 199.84 288.1C199.609 287.517 199.209 287.016 198.693 286.66C198.177 286.304 197.567 286.109 196.94 286.1C195.05 285.732 193.118 285.628 191.2 285.79C189.05 286.03 188.48 286.55 187.73 288.6C187.352 289.615 186.894 290.598 186.36 291.54Z" fill="white"/>
<path d="M191.85 291.94C192.352 292.03 192.86 292.08 193.37 292.09C194.93 292.16 196.7 292.15 197.81 291.04C198.92 289.93 198.94 288.3 198.94 286.79V280.93C198.94 277.06 195.32 277.59 192.48 278.07C191.82 278.148 191.189 278.385 190.64 278.76C189.64 279.55 189.53 280.99 189.49 282.25L189.29 288.42C189.202 289.159 189.313 289.908 189.61 290.59C189.857 290.97 190.187 291.288 190.575 291.522C190.963 291.756 191.399 291.899 191.85 291.94Z" fill="#FDBAAC"/>
<path d="M222.95 291.54C223.95 293.28 225.06 294.95 225.95 296.7C227.41 299.42 228.41 302.63 227.44 305.55C227.306 306.058 227.032 306.519 226.65 306.88C226.141 307.243 225.543 307.461 224.92 307.51C222.902 307.826 220.863 307.993 218.82 308.01C216.02 308.01 212.99 307.68 210.92 305.8C206.74 302.01 207.02 292.68 209.41 288.1C209.611 287.667 209.889 287.274 210.23 286.94C210.833 286.477 211.553 286.193 212.31 286.12C214.203 285.752 216.138 285.648 218.06 285.81C220.2 286.05 220.77 286.57 221.52 288.62C221.914 289.631 222.393 290.608 222.95 291.54Z" fill="white"/>
<path d="M217.46 291.94C216.958 292.029 216.45 292.079 215.94 292.09C214.37 292.16 212.61 292.15 211.5 291.04C210.39 289.93 210.36 288.3 210.36 286.79V280.93C210.36 277.06 213.99 277.59 216.82 278.07C217.484 278.146 218.119 278.383 218.67 278.76C219.67 279.55 219.77 280.99 219.81 282.25L220.01 288.42C220.101 289.158 219.994 289.907 219.7 290.59C219.453 290.97 219.123 291.288 218.735 291.522C218.347 291.756 217.911 291.899 217.46 291.94Z" fill="#FDBAAC"/>
<path d="M214.7 140.12C214.7 140.12 226.9 145.4 228.33 146.6C229.61 147.67 226.14 220.91 225.87 224.49C225.6 228.07 206.08 228.64 197.64 227.03C192.009 225.883 186.498 224.209 181.18 222.03C181.18 222.03 178.51 146.38 180.18 145.03C181.85 143.68 197.98 138.69 197.98 138.69L214.7 140.12Z" fill="#F9F9FA"/>
<path d="M174.57 230.45C173.66 233.79 173.11 237.55 174.85 240.53C176.009 242.355 177.744 243.742 179.78 244.47C181.804 245.183 183.911 245.63 186.05 245.8C199.154 247.295 212.415 246.575 225.28 243.67C227.075 243.425 228.76 242.664 230.13 241.48C231.267 240.091 231.926 238.373 232.01 236.58C232.772 230.225 231.457 223.795 228.26 218.25C228.038 217.796 227.691 217.414 227.26 217.15C226.845 216.967 226.391 216.891 225.94 216.93L192.65 217.04C190.233 217.1 187.815 217.01 185.41 216.77C183.54 216.55 181.41 215.36 180.07 216.96C177.22 220.3 175.69 226.29 174.57 230.45Z" fill="#473F47"/>
<path d="M174.57 230.45C173.66 233.79 173.11 237.55 174.85 240.53C176.009 242.355 177.744 243.742 179.78 244.47C181.804 245.183 183.911 245.63 186.05 245.8C199.154 247.295 212.415 246.575 225.28 243.67C227.075 243.425 228.76 242.664 230.13 241.48C231.267 240.091 231.926 238.373 232.01 236.58C232.772 230.225 231.457 223.795 228.26 218.25C228.038 217.796 227.691 217.414 227.26 217.15C226.845 216.967 226.391 216.891 225.94 216.93L192.65 217.04C190.233 217.1 187.815 217.01 185.41 216.77C183.54 216.55 181.41 215.36 180.07 216.96C177.22 220.3 175.69 226.29 174.57 230.45Z" fill="#486B93"/>
<path d="M214.24 283.11L216.19 283.3C222.09 283.89 224.47 278.86 225.06 272.96C225.2 271.73 225.49 270.49 225.7 269.27L229.59 246.61L231.39 236.11C231.57 235.05 231.76 234 231.93 232.94C232.45 229.86 231.52 226.89 230.93 223.8C230.58 221.93 230.13 219.92 228.69 218.68C227.25 217.44 225.26 217.33 223.4 217.24C218.46 217.02 213.45 216.79 208.64 217.94C208.344 217.978 208.071 218.12 207.87 218.34C207.735 218.594 207.689 218.887 207.74 219.17C208.09 223.87 208.84 228.53 208.74 233.23L207.89 270.99C207.29 276.86 208.34 282.52 214.24 283.11Z" fill="#486B93"/>
<path d="M195.79 284.61L193.79 284.8C187.9 285.39 185.51 280.36 184.92 274.46L178.57 237.46C178.06 234.52 177.63 231.69 177.41 228.7C177.166 226.678 177.233 224.631 177.61 222.63C177.805 221.631 178.225 220.689 178.838 219.876C179.452 219.064 180.242 218.401 181.15 217.94C182.109 217.575 183.124 217.379 184.15 217.36C187.527 217.139 190.919 217.3 194.26 217.84C195.46 217.942 196.614 218.352 197.61 219.03C198.595 219.988 199.288 221.205 199.61 222.54C200.61 225.42 201.9 228.6 201.61 231.68C201.371 233.647 201.257 235.628 201.27 237.61L201.56 250.71L202.05 272.14C202.04 272.26 202.04 272.38 202.05 272.5C202.7 278.33 201.65 283.99 195.79 284.61Z" fill="#486B93"/>
<path d="M123.19 204.24L121.79 212.71L105.63 312.21C105.561 312.848 105.28 313.444 104.832 313.903C104.385 314.361 103.795 314.656 103.16 314.74C102.02 314.74 101.28 313.6 101.51 312.21L117.67 212.71L119.04 204.24H123.19Z" fill="#3C597A"/>
<path d="M284.22 204.24L285.59 212.71L301.79 312.21C301.858 312.848 302.139 313.444 302.587 313.903C303.035 314.361 303.624 314.656 304.26 314.74C305.4 314.74 306.14 313.6 305.91 312.21L289.75 212.71L288.38 204.24H284.22Z" fill="#3C597A"/>
<path d="M298.41 207.39V209.55C298.411 209.964 298.331 210.375 298.173 210.759C298.015 211.142 297.784 211.49 297.491 211.784C297.198 212.077 296.851 212.31 296.468 212.469C296.085 212.628 295.675 212.71 295.26 212.71H110.67C110.256 212.71 109.845 212.628 109.462 212.469C109.079 212.31 108.732 212.077 108.439 211.784C108.146 211.49 107.915 211.142 107.757 210.759C107.599 210.375 107.519 209.964 107.52 209.55V207.39C107.52 206.555 107.852 205.753 108.443 205.163C109.033 204.572 109.835 204.24 110.67 204.24H295.26C296.095 204.24 296.897 204.572 297.487 205.163C298.078 205.753 298.41 206.555 298.41 207.39Z" fill="#45678C"/>
<path d="M240.99 170.76C240.99 170.76 248.91 187.26 248.06 191.76C247.47 194.93 241.4 197.71 239 199.15C236.6 200.59 234.19 202.36 231.7 203.34C229.21 204.32 226.37 203.94 223.84 203.86L210.84 203.44C210.22 203.44 209.39 203.21 209.39 202.58C209.39 202.21 209.71 201.92 210.02 201.71C210.992 201.032 212.121 200.612 213.3 200.49C216.109 200.312 218.884 199.781 221.56 198.91L236.52 188.61L232.91 181.92L240.99 170.76Z" fill="#FDBAAC"/>
<path d="M180.89 144.67C178.29 145.8 176.51 147.36 175.89 150.03C174.89 154.16 172.84 157.62 170.89 161.37C169.726 163.647 168.724 166.003 167.89 168.42C167.566 169.155 167.449 169.964 167.55 170.76C167.723 171.362 168.015 171.923 168.41 172.41C170.723 175.637 173.13 178.793 175.63 181.88C177.139 181.182 178.581 180.348 179.94 179.39C180.47 178.55 180.26 176.53 180.34 175.55C180.487 173.55 180.62 171.527 180.74 169.48L180.89 144.67Z" fill="#F9F9FA"/>
<path d="M210.25 130.94C210.347 131.415 210.411 131.896 210.44 132.38C210.57 134.32 210.37 136.31 210.95 138.16C211.174 138.827 211.476 139.464 211.85 140.06C213.24 142.26 211.52 145.85 210.3 147.85C208.75 150.38 206.3 152.85 203.19 153.15C199.28 153.5 197.58 149.15 196.86 146.06C196.44 144.28 196.08 143 196.75 141.24C197.42 139.48 198.46 137.8 198.99 135.94C199.435 133.797 199.689 131.618 199.75 129.43C199.777 128.847 199.93 128.277 200.2 127.76C200.429 127.422 200.724 127.134 201.068 126.914C201.412 126.694 201.797 126.546 202.2 126.48C202.989 126.342 203.794 126.318 204.59 126.41C205.821 126.407 207.034 126.709 208.12 127.29C208.699 127.727 209.185 128.275 209.551 128.901C209.917 129.528 210.154 130.221 210.25 130.94Z" fill="#FDBAAC"/>
<path d="M199.4 134.23C199.4 134.23 200.99 144.18 205.22 142.39C209.45 140.6 210.48 134.89 210.48 134.89L199.4 134.23Z" fill="#DEA095"/>
<path d="M193.87 112.03C193.87 112.03 194.07 127.42 195.62 131.43C197.17 135.44 201.02 138.66 204.54 138.34C208.06 138.02 213.1 134.6 214.98 129.1C216.86 123.6 216.86 110.55 216.11 108.84C215.36 107.13 211.32 101.89 202 103.59C195.59 104.76 193.66 109.68 193.87 112.03Z" fill="#FDBAAC"/>
<path d="M241.29 162.78C242.59 164.62 243.51 165.95 243.73 166.26C244.069 166.681 244.323 167.163 244.48 167.68C244.538 168.154 244.498 168.635 244.363 169.092C244.227 169.55 243.998 169.975 243.69 170.34C242.3 172.34 240.25 173.7 238.46 175.34C236.445 177.334 234.639 179.529 233.07 181.89C231.856 181.023 230.748 180.016 229.77 178.89C228.832 178.179 228.098 177.234 227.641 176.149C227.185 175.064 227.022 173.878 227.17 172.71L226.99 159.81L226.89 153.36C226.89 152.25 225.46 147.23 226.15 146.36C227.79 144.31 236.79 156.5 241.29 162.78Z" fill="#F9F9FA"/>
<path d="M191.92 117.73C191.806 117.695 191.684 117.695 191.57 117.73C191.459 117.802 191.369 117.902 191.31 118.02C190.904 118.743 190.766 119.585 190.92 120.4C191.088 121.07 191.344 121.716 191.68 122.32C192.022 123.301 192.632 124.167 193.44 124.82C193.602 124.937 193.801 124.99 194 124.97C194.144 124.945 194.277 124.875 194.38 124.77C194.899 124.157 195.17 123.372 195.14 122.57C195.356 121.449 195.149 120.288 194.56 119.31C194.264 118.868 193.874 118.497 193.417 118.224C192.961 117.951 192.449 117.782 191.92 117.73Z" fill="#FDBAAC"/>
<path d="M218.15 117.48C218.265 117.455 218.385 117.455 218.5 117.48C218.609 117.554 218.698 117.654 218.76 117.77C219.161 118.498 219.299 119.342 219.15 120.16C218.969 120.826 218.714 121.47 218.39 122.08C218.047 123.058 217.437 123.92 216.63 124.57C216.466 124.691 216.263 124.748 216.06 124.73C215.921 124.698 215.793 124.629 215.69 124.53C215.173 123.916 214.902 123.132 214.93 122.33C214.707 121.209 214.914 120.045 215.51 119.07C215.805 118.626 216.195 118.253 216.651 117.978C217.108 117.703 217.62 117.533 218.15 117.48Z" fill="#FDBAAC"/>
<path d="M191.23 110.61C190.91 108.61 190.84 106.3 192.23 104.83C192.52 104.52 192.87 104.27 193.17 103.97C193.47 103.67 193.93 103.06 194.32 102.6C195.483 101.341 196.898 100.341 198.472 99.6636C200.047 98.9866 201.746 98.648 203.46 98.67C206.879 98.7387 210.261 99.3914 213.46 100.6C215.26 101.187 217.047 101.823 218.82 102.51C219.509 102.727 220.146 103.085 220.69 103.56C221.075 103.986 221.335 104.511 221.439 105.076C221.543 105.641 221.488 106.224 221.28 106.76C220.98 107.61 220.36 108.33 220.11 109.19C219.96 109.869 219.9 110.565 219.93 111.26C219.867 113.109 219.381 114.918 218.51 116.55C218.029 117.588 217.226 118.444 216.22 118.99C216.299 116.492 215.961 113.997 215.22 111.61C213.1 113.32 210.522 114.364 207.81 114.61C205.109 114.842 202.39 114.533 199.81 113.7C199.181 113.429 198.486 113.345 197.81 113.46C197.16 113.64 196.64 114.46 197.01 115C196.883 114.919 196.741 114.864 196.593 114.839C196.444 114.813 196.292 114.817 196.145 114.85C195.998 114.884 195.859 114.946 195.737 115.034C195.614 115.121 195.51 115.232 195.43 115.36C195.138 115.896 194.996 116.5 195.02 117.11L194.85 120.93C192.56 118.24 191.79 114.1 191.23 110.61Z" fill="#3C597A"/>
<path d="M167.53 170.76C165.89 174.17 164.38 177.66 163.04 181.2C162.035 183.655 161.239 186.191 160.66 188.78C160.45 189.78 159.96 191.15 160.33 192.16C160.9 193.71 163.25 194.92 164.57 195.72C168.777 198.297 173.157 200.579 177.68 202.55C179.433 203.39 181.289 203.995 183.2 204.35C184.699 204.533 186.213 204.577 187.72 204.48L196.4 204.18C197.19 204.18 198.22 203.91 198.29 203.12C198.29 202.57 197.82 202.12 197.35 201.83C195.802 200.85 194.117 200.105 192.35 199.62C190.62 199.15 188.48 199.47 186.85 198.89C185.01 198.24 182.96 196.18 181.33 195.05L172 188.61L175.61 181.92L167.53 170.76Z" fill="#FDBAAC"/>
<path d="M227.89 200.72H179.24L174.97 167.94L231.34 168.72L227.89 200.72Z" fill="#3C597A"/>
<path d="M227.89 200.71H179V204.28H227.89V200.71Z" fill="#68E1FD"/>
<path d="M227.89 200.71H179V204.28H227.89V200.71Z" fill="url(#paint2_linear)"/>
<path d="M141.16 204.24H117.01C117.889 201.74 119.523 199.574 121.686 198.042C123.849 196.51 126.434 195.687 129.085 195.687C131.736 195.687 134.321 196.51 136.484 198.042C138.647 199.574 140.281 201.74 141.16 204.24Z" fill="#68E1FD"/>
<path d="M115.905 158.38C115.579 157.424 114.539 156.913 113.582 157.239C112.626 157.565 112.115 158.605 112.441 159.562L125.435 197.667C125.761 198.624 126.801 199.135 127.758 198.808C128.714 198.482 129.225 197.442 128.899 196.486L115.905 158.38Z" fill="#68E1FD"/>
<path d="M113.642 157.185C112.678 157.488 112.142 158.515 112.444 159.48C112.747 160.444 113.775 160.98 114.739 160.677L153.148 148.611C154.112 148.308 154.648 147.281 154.346 146.316C154.043 145.352 153.015 144.816 152.051 145.119L113.642 157.185Z" fill="#68E1FD"/>
<path d="M115.905 158.38C115.579 157.424 114.539 156.913 113.582 157.239C112.626 157.565 112.115 158.605 112.441 159.562L125.435 197.667C125.761 198.624 126.801 199.135 127.758 198.808C128.714 198.482 129.225 197.442 128.899 196.486L115.905 158.38Z" fill="#45678C"/>
<path d="M141.16 204.241H117.01C117.889 201.74 119.523 199.575 121.686 198.042C123.849 196.51 126.434 195.688 129.085 195.688C131.735 195.688 134.321 196.51 136.483 198.042C138.646 199.575 140.28 201.74 141.16 204.241Z" fill="#3C597A"/>
<path d="M141.16 204.241H117.01C117.889 201.74 119.523 199.575 121.686 198.042C123.849 196.51 126.434 195.688 129.085 195.688C131.735 195.688 134.321 196.51 136.483 198.042C138.646 199.575 140.28 201.74 141.16 204.241Z" fill="url(#paint3_linear)"/>
<path d="M113.642 157.185C112.678 157.488 112.142 158.515 112.444 159.48C112.747 160.444 113.775 160.98 114.739 160.677L153.148 148.611C154.112 148.308 154.648 147.281 154.346 146.316C154.043 145.352 153.015 144.816 152.051 145.119L113.642 157.185Z" fill="#45678C"/>
<path d="M168.33 149.99C165.23 154.43 161.56 157.27 159.99 156.5C159.92 156.463 159.853 156.419 159.79 156.37L159.58 156.24C155 153.03 150.77 144.54 153.98 139.95C157.19 135.36 166.62 136.41 171.2 139.62L171.4 139.77C171.467 139.811 171.531 139.858 171.59 139.91C172.85 141.12 171.44 145.54 168.33 149.99Z" fill="#68E1FD"/>
<path d="M168.33 149.99C165.23 154.43 161.56 157.27 159.99 156.5C159.92 156.463 159.853 156.419 159.79 156.37L159.58 156.24C155 153.03 150.77 144.54 153.98 139.95C157.19 135.36 166.62 136.41 171.2 139.62L171.4 139.77C171.467 139.811 171.531 139.858 171.59 139.91C172.85 141.12 171.44 145.54 168.33 149.99Z" fill="url(#paint4_linear)"/>
<path d="M168.33 149.99C165.23 154.43 161.56 157.27 159.99 156.5L159.85 156.42C159.825 156.41 159.804 156.392 159.79 156.37C158.4 155.26 159.79 150.77 162.97 146.24C166.15 141.71 169.88 138.85 171.4 139.77H171.47L171.59 139.87C172.85 141.12 171.44 145.54 168.33 149.99Z" fill="#68E1FD"/>
<path d="M168.33 149.99C165.23 154.43 161.56 157.27 159.99 156.5L159.85 156.42C159.825 156.41 159.804 156.392 159.79 156.37C158.4 155.26 159.79 150.77 162.97 146.24C166.15 141.71 169.88 138.85 171.4 139.77H171.47L171.59 139.87C172.85 141.12 171.44 145.54 168.33 149.99Z" fill="white"/>
<path d="M271.5 170.75H265.64C264.303 170.75 263.22 171.833 263.22 173.17V202.09C263.22 203.427 264.303 204.51 265.64 204.51H271.5C272.836 204.51 273.92 203.427 273.92 202.09V173.17C273.92 171.833 272.836 170.75 271.5 170.75Z" fill="#234061"/>
<path d="M271.5 170.75H265.64C264.303 170.75 263.22 171.833 263.22 173.17V202.09C263.22 203.427 264.303 204.51 265.64 204.51H271.5C272.836 204.51 273.92 203.427 273.92 202.09V173.17C273.92 171.833 272.836 170.75 271.5 170.75Z" fill="url(#paint5_linear)"/>
<path d="M281.886 170.59L276.04 170.993C274.706 171.085 273.7 172.24 273.792 173.573L275.779 202.425C275.871 203.758 277.026 204.765 278.359 204.673L284.206 204.27C285.539 204.179 286.545 203.023 286.454 201.69L284.466 172.838C284.375 171.505 283.219 170.498 281.886 170.59Z" fill="url(#paint6_linear)"/>
<path d="M177.15 166.32L175.02 167.94L231.39 168.72L229.45 166.82L177.15 166.32Z" fill="url(#paint7_linear)"/>
<defs>
<linearGradient id="paint0_linear" x1="3.75881e-06" y1="116" x2="231" y2="116" gradientUnits="userSpaceOnUse">
<stop stop-color="#364F6B"/>
<stop offset="1" stop-color="#486688"/>
</linearGradient>
<linearGradient id="paint1_linear" x1="203.224" y1="165.97" x2="203.224" y2="250.972" gradientUnits="userSpaceOnUse">
<stop stop-color="#FC5185"/>
<stop offset="1" stop-color="#D32056"/>
</linearGradient>
<linearGradient id="paint2_linear" x1="9110.23" y1="685.087" x2="9110.04" y2="798.738" gradientUnits="userSpaceOnUse">
<stop offset="0.01" stop-color="#486B93"/>
<stop offset="0.08" stop-opacity="0.69"/>
<stop offset="0.21" stop-opacity="0.32"/>
<stop offset="1" stop-opacity="0"/>
</linearGradient>
<linearGradient id="paint3_linear" x1="129.085" y1="195.688" x2="129.085" y2="204.241" gradientUnits="userSpaceOnUse">
<stop stop-color="#43DDE6"/>
<stop offset="1" stop-color="#00B2BC"/>
</linearGradient>
<linearGradient id="paint4_linear" x1="162.453" y1="136.854" x2="162.453" y2="156.626" gradientUnits="userSpaceOnUse">
<stop stop-color="#43DDE6"/>
<stop offset="1" stop-color="#00B2BC"/>
</linearGradient>
<linearGradient id="paint5_linear" x1="268.57" y1="170.75" x2="268.57" y2="204.51" gradientUnits="userSpaceOnUse">
<stop stop-color="#43DDE6"/>
<stop offset="1" stop-color="#00B2BC"/>
</linearGradient>
<linearGradient id="paint6_linear" x1="278.963" y1="170.792" x2="281.283" y2="204.472" gradientUnits="userSpaceOnUse">
<stop stop-color="#43DDE6"/>
<stop offset="1" stop-color="#00B2BC"/>
</linearGradient>
<linearGradient id="paint7_linear" x1="10478.9" y1="414.072" x2="10478.6" y2="520.583" gradientUnits="userSpaceOnUse">
<stop offset="0.01" stop-color="#486B93"/>
<stop offset="0.08" stop-opacity="0.69"/>
<stop offset="0.21" stop-opacity="0.32"/>
<stop offset="1" stop-opacity="0"/>
</linearGradient>
</defs>
</svg>
